EESchema Schematic File Version 2
LIBS:power
LIBS:device
LIBS:transistors
LIBS:conn
LIBS:linear
LIBS:regul
LIBS:74xx
LIBS:cmos4000
LIBS:adc-dac
LIBS:memory
LIBS:xilinx
LIBS:microcontrollers
LIBS:dsp
LIBS:microchip
LIBS:analog_switches
LIBS:motorola
LIBS:texas
LIBS:intel
LIBS:audio
LIBS:interface
LIBS:digital-audio
LIBS:philips
LIBS:display
LIBS:cypress
LIBS:siliconi
LIBS:opto
LIBS:atmel
LIBS:contrib
LIBS:valves
LIBS:edulib
LIBS:stm32
LIBS:warsztaty
LIBS:project-cache
EELAYER 25 0
EELAYER END
$Descr A3 16535 11693
encoding utf-8
Sheet 1 1
Title ""
Date ""
Rev ""
Comp ""
Comment1 ""
Comment2 ""
Comment3 ""
Comment4 ""
$EndDescr
$Comp
L KTIR0711S U2
U 1 1 5813794A
P 13275 1275
F 0 "U2" H 13075 1475 50  0000 L CNN
F 1 "KTIR0711S" H 13275 1475 50  0000 L CNN
F 2 "" H 13075 1075 50  0000 L CIN
F 3 "" H 13275 1275 50  0000 L CNN
	1    13275 1275
	1    0    0    -1  
$EndComp
$Comp
L R R1
U 1 1 58137AF4
P 13125 875
F 0 "R1" V 13205 875 50  0000 C CNN
F 1 "100" V 13125 875 50  0000 C CNN
F 2 "" V 13055 875 50  0000 C CNN
F 3 "" H 13125 875 50  0000 C CNN
	1    13125 875 
	0    1    1    0   
$EndComp
$Comp
L R R3
U 1 1 58137B5E
P 13875 1025
F 0 "R3" V 13955 1025 50  0000 C CNN
F 1 "10 k" V 13875 1025 50  0000 C CNN
F 2 "" V 13805 1025 50  0000 C CNN
F 3 "" H 13875 1025 50  0000 C CNN
	1    13875 1025
	-1   0    0    1   
$EndComp
$Comp
L GND #PWR52
U 1 1 58137EB0
P 13875 1375
F 0 "#PWR52" H 13875 1125 50  0001 C CNN
F 1 "GND" H 13875 1225 50  0000 C CNN
F 2 "" H 13875 1375 50  0000 C CNN
F 3 "" H 13875 1375 50  0000 C CNN
	1    13875 1375
	1    0    0    -1  
$EndComp
$Comp
L +3.3V #PWR51
U 1 1 58137EE6
P 13875 875
F 0 "#PWR51" H 13875 725 50  0001 C CNN
F 1 "+3.3V" H 13875 1015 50  0000 C CNN
F 2 "" H 13875 875 50  0000 C CNN
F 3 "" H 13875 875 50  0000 C CNN
	1    13875 875 
	1    0    0    -1  
$EndComp
Text Label 14125 1175 0    60   ~ 0
KTIR1
$Comp
L +3.3V #PWR1
U 1 1 581389B7
P 825 800
F 0 "#PWR1" H 825 650 50  0001 C CNN
F 1 "+3.3V" H 825 940 50  0000 C CNN
F 2 "" H 825 800 50  0000 C CNN
F 3 "" H 825 800 50  0000 C CNN
	1    825  800 
	1    0    0    -1  
$EndComp
$Comp
L L_Small L1
U 1 1 58138ABF
P 1100 800
F 0 "L1" H 1130 840 50  0000 L CNN
F 1 "10uH" H 1130 760 50  0000 L CNN
F 2 "" H 1100 800 50  0000 C CNN
F 3 "" H 1100 800 50  0000 C CNN
	1    1100 800 
	0    1    1    0   
$EndComp
Text Label 5175 2250 0    60   ~ 0
KTIR1
Text Label 5175 2350 0    60   ~ 0
KTIR2
Text Label 5175 2450 0    60   ~ 0
KTIR3
Text Label 5175 2550 0    60   ~ 0
KTIR4
$Comp
L KTIR0711S U4
U 1 1 58148800
P 14850 1275
F 0 "U4" H 14650 1475 50  0000 L CNN
F 1 "KTIR0711S" H 14850 1475 50  0000 L CNN
F 2 "" H 14650 1075 50  0000 L CIN
F 3 "" H 14850 1275 50  0000 L CNN
	1    14850 1275
	1    0    0    -1  
$EndComp
$Comp
L R R5
U 1 1 58148806
P 14700 875
F 0 "R5" V 14780 875 50  0000 C CNN
F 1 "100" V 14700 875 50  0000 C CNN
F 2 "" V 14630 875 50  0000 C CNN
F 3 "" H 14700 875 50  0000 C CNN
	1    14700 875 
	0    1    1    0   
$EndComp
$Comp
L R R7
U 1 1 5814880C
P 15450 1025
F 0 "R7" V 15530 1025 50  0000 C CNN
F 1 "10 k" V 15450 1025 50  0000 C CNN
F 2 "" V 15380 1025 50  0000 C CNN
F 3 "" H 15450 1025 50  0000 C CNN
	1    15450 1025
	-1   0    0    1   
$EndComp
$Comp
L GND #PWR60
U 1 1 5814881C
P 15450 1375
F 0 "#PWR60" H 15450 1125 50  0001 C CNN
F 1 "GND" H 15450 1225 50  0000 C CNN
F 2 "" H 15450 1375 50  0000 C CNN
F 3 "" H 15450 1375 50  0000 C CNN
	1    15450 1375
	1    0    0    -1  
$EndComp
$Comp
L +3.3V #PWR59
U 1 1 58148823
P 15450 875
F 0 "#PWR59" H 15450 725 50  0001 C CNN
F 1 "+3.3V" H 15450 1015 50  0000 C CNN
F 2 "" H 15450 875 50  0000 C CNN
F 3 "" H 15450 875 50  0000 C CNN
	1    15450 875 
	1    0    0    -1  
$EndComp
Text Label 15700 1175 0    60   ~ 0
KTIR2
$Comp
L KTIR0711S U3
U 1 1 58148A6A
P 13275 2200
F 0 "U3" H 13075 2400 50  0000 L CNN
F 1 "KTIR0711S" H 13275 2400 50  0000 L CNN
F 2 "" H 13075 2000 50  0000 L CIN
F 3 "" H 13275 2200 50  0000 L CNN
	1    13275 2200
	1    0    0    -1  
$EndComp
$Comp
L R R2
U 1 1 58148A70
P 13125 1800
F 0 "R2" V 13205 1800 50  0000 C CNN
F 1 "100" V 13125 1800 50  0000 C CNN
F 2 "" V 13055 1800 50  0000 C CNN
F 3 "" H 13125 1800 50  0000 C CNN
	1    13125 1800
	0    1    1    0   
$EndComp
$Comp
L R R4
U 1 1 58148A76
P 13875 1950
F 0 "R4" V 13955 1950 50  0000 C CNN
F 1 "10 k" V 13875 1950 50  0000 C CNN
F 2 "" V 13805 1950 50  0000 C CNN
F 3 "" H 13875 1950 50  0000 C CNN
	1    13875 1950
	-1   0    0    1   
$EndComp
$Comp
L GND #PWR54
U 1 1 58148A86
P 13875 2300
F 0 "#PWR54" H 13875 2050 50  0001 C CNN
F 1 "GND" H 13875 2150 50  0000 C CNN
F 2 "" H 13875 2300 50  0000 C CNN
F 3 "" H 13875 2300 50  0000 C CNN
	1    13875 2300
	1    0    0    -1  
$EndComp
$Comp
L +3.3V #PWR53
U 1 1 58148A8D
P 13875 1800
F 0 "#PWR53" H 13875 1650 50  0001 C CNN
F 1 "+3.3V" H 13875 1940 50  0000 C CNN
F 2 "" H 13875 1800 50  0000 C CNN
F 3 "" H 13875 1800 50  0000 C CNN
	1    13875 1800
	1    0    0    -1  
$EndComp
Text Label 14125 2100 0    60   ~ 0
KTIR3
$Comp
L KTIR0711S U5
U 1 1 58148BD6
P 14850 2200
F 0 "U5" H 14650 2400 50  0000 L CNN
F 1 "KTIR0711S" H 14850 2400 50  0000 L CNN
F 2 "" H 14650 2000 50  0000 L CIN
F 3 "" H 14850 2200 50  0000 L CNN
	1    14850 2200
	1    0    0    -1  
$EndComp
$Comp
L R R6
U 1 1 58148BDC
P 14700 1800
F 0 "R6" V 14780 1800 50  0000 C CNN
F 1 "100" V 14700 1800 50  0000 C CNN
F 2 "" V 14630 1800 50  0000 C CNN
F 3 "" H 14700 1800 50  0000 C CNN
	1    14700 1800
	0    1    1    0   
$EndComp
$Comp
L R R8
U 1 1 58148BE2
P 15450 1950
F 0 "R8" V 15530 1950 50  0000 C CNN
F 1 "10 k" V 15450 1950 50  0000 C CNN
F 2 "" V 15380 1950 50  0000 C CNN
F 3 "" H 15450 1950 50  0000 C CNN
	1    15450 1950
	-1   0    0    1   
$EndComp
$Comp
L GND #PWR62
U 1 1 58148BF2
P 15450 2300
F 0 "#PWR62" H 15450 2050 50  0001 C CNN
F 1 "GND" H 15450 2150 50  0000 C CNN
F 2 "" H 15450 2300 50  0000 C CNN
F 3 "" H 15450 2300 50  0000 C CNN
	1    15450 2300
	1    0    0    -1  
$EndComp
$Comp
L +3.3V #PWR61
U 1 1 58148BF9
P 15450 1800
F 0 "#PWR61" H 15450 1650 50  0001 C CNN
F 1 "+3.3V" H 15450 1940 50  0000 C CNN
F 2 "" H 15450 1800 50  0000 C CNN
F 3 "" H 15450 1800 50  0000 C CNN
	1    15450 1800
	1    0    0    -1  
$EndComp
Text Label 15700 2100 0    60   ~ 0
KTIR3
$Comp
L GND #PWR9
U 1 1 58148F15
P 2950 5300
F 0 "#PWR9" H 2950 5050 50  0001 C CNN
F 1 "GND" H 2950 5150 50  0000 C CNN
F 2 "" H 2950 5300 50  0000 C CNN
F 3 "" H 2950 5300 50  0000 C CNN
	1    2950 5300
	1    0    0    -1  
$EndComp
$Comp
L SHARP_40CM U10
U 1 1 58149635
P 15525 3325
F 0 "U10" H 15125 2875 50  0000 C CNN
F 1 "SHARP_40CM" H 15325 3675 50  0000 C CNN
F 2 "" H 15525 3325 50  0001 C CNN
F 3 "" H 15525 3325 50  0001 C CNN
	1    15525 3325
	1    0    0    -1  
$EndComp
$Comp
L C_Small C12
U 1 1 5814A255
P 14675 3525
F 0 "C12" H 14685 3595 50  0000 L CNN
F 1 "100nF" H 14685 3445 50  0000 L CNN
F 2 "" H 14675 3525 50  0000 C CNN
F 3 "" H 14675 3525 50  0000 C CNN
	1    14675 3525
	0    1    1    0   
$EndComp
Text Label 14775 3375 2    60   ~ 0
SHARP1
$Comp
L R_Small R12
U 1 1 5814A616
P 14625 3225
F 0 "R12" H 14655 3245 50  0000 L CNN
F 1 "1R" H 14655 3185 50  0000 L CNN
F 2 "" H 14625 3225 50  0000 C CNN
F 3 "" H 14625 3225 50  0000 C CNN
	1    14625 3225
	0    -1   -1   0   
$EndComp
$Comp
L +5V #PWR57
U 1 1 5814ABD9
P 14775 3125
F 0 "#PWR57" H 14775 2975 50  0001 C CNN
F 1 "+5V" H 14775 3265 50  0000 C CNN
F 2 "" H 14775 3125 50  0000 C CNN
F 3 "" H 14775 3125 50  0000 C CNN
	1    14775 3125
	1    0    0    -1  
$EndComp
$Comp
L GND #PWR55
U 1 1 5814B20D
P 14400 3525
F 0 "#PWR55" H 14400 3275 50  0001 C CNN
F 1 "GND" H 14400 3375 50  0000 C CNN
F 2 "" H 14400 3525 50  0000 C CNN
F 3 "" H 14400 3525 50  0000 C CNN
	1    14400 3525
	1    0    0    -1  
$EndComp
$Comp
L SHARP_40CM U8
U 1 1 5814BE5C
P 14000 3325
F 0 "U8" H 13600 2875 50  0000 C CNN
F 1 "SHARP_40CM" H 13800 3675 50  0000 C CNN
F 2 "" H 14000 3325 50  0001 C CNN
F 3 "" H 14000 3325 50  0001 C CNN
	1    14000 3325
	1    0    0    -1  
$EndComp
$Comp
L C_Small C10
U 1 1 5814BE62
P 13150 3525
F 0 "C10" H 13160 3595 50  0000 L CNN
F 1 "100nF" H 13160 3445 50  0000 L CNN
F 2 "" H 13150 3525 50  0000 C CNN
F 3 "" H 13150 3525 50  0000 C CNN
	1    13150 3525
	0    1    1    0   
$EndComp
Text Label 13250 3375 2    60   ~ 0
SHARP2
$Comp
L R_Small R10
U 1 1 5814BE69
P 13100 3225
F 0 "R10" H 13130 3245 50  0000 L CNN
F 1 "1R" H 13130 3185 50  0000 L CNN
F 2 "" H 13100 3225 50  0000 C CNN
F 3 "" H 13100 3225 50  0000 C CNN
	1    13100 3225
	0    -1   -1   0   
$EndComp
$Comp
L +5V #PWR48
U 1 1 5814BE6F
P 13250 3125
F 0 "#PWR48" H 13250 2975 50  0001 C CNN
F 1 "+5V" H 13250 3265 50  0000 C CNN
F 2 "" H 13250 3125 50  0000 C CNN
F 3 "" H 13250 3125 50  0000 C CNN
	1    13250 3125
	1    0    0    -1  
$EndComp
$Comp
L GND #PWR46
U 1 1 5814BE7F
P 12875 3525
F 0 "#PWR46" H 12875 3275 50  0001 C CNN
F 1 "GND" H 12875 3375 50  0000 C CNN
F 2 "" H 12875 3525 50  0000 C CNN
F 3 "" H 12875 3525 50  0000 C CNN
	1    12875 3525
	1    0    0    -1  
$EndComp
$Comp
L SHARP_40CM U11
U 1 1 5814C144
P 15525 4275
F 0 "U11" H 15125 3825 50  0000 C CNN
F 1 "SHARP_40CM" H 15325 4625 50  0000 C CNN
F 2 "" H 15525 4275 50  0001 C CNN
F 3 "" H 15525 4275 50  0001 C CNN
	1    15525 4275
	1    0    0    -1  
$EndComp
$Comp
L C_Small C13
U 1 1 5814C14A
P 14675 4475
F 0 "C13" H 14685 4545 50  0000 L CNN
F 1 "100nF" H 14685 4395 50  0000 L CNN
F 2 "" H 14675 4475 50  0000 C CNN
F 3 "" H 14675 4475 50  0000 C CNN
	1    14675 4475
	0    1    1    0   
$EndComp
Text Label 14775 4325 2    60   ~ 0
SHARP3
$Comp
L R_Small R13
U 1 1 5814C151
P 14625 4175
F 0 "R13" H 14655 4195 50  0000 L CNN
F 1 "1R" H 14655 4135 50  0000 L CNN
F 2 "" H 14625 4175 50  0000 C CNN
F 3 "" H 14625 4175 50  0000 C CNN
	1    14625 4175
	0    -1   -1   0   
$EndComp
$Comp
L +5V #PWR58
U 1 1 5814C157
P 14775 4075
F 0 "#PWR58" H 14775 3925 50  0001 C CNN
F 1 "+5V" H 14775 4215 50  0000 C CNN
F 2 "" H 14775 4075 50  0000 C CNN
F 3 "" H 14775 4075 50  0000 C CNN
	1    14775 4075
	1    0    0    -1  
$EndComp
$Comp
L GND #PWR56
U 1 1 5814C167
P 14400 4475
F 0 "#PWR56" H 14400 4225 50  0001 C CNN
F 1 "GND" H 14400 4325 50  0000 C CNN
F 2 "" H 14400 4475 50  0000 C CNN
F 3 "" H 14400 4475 50  0000 C CNN
	1    14400 4475
	1    0    0    -1  
$EndComp
$Comp
L SHARP_40CM U9
U 1 1 5814C16D
P 14000 4275
F 0 "U9" H 13600 3825 50  0000 C CNN
F 1 "SHARP_40CM" H 13800 4625 50  0000 C CNN
F 2 "" H 14000 4275 50  0001 C CNN
F 3 "" H 14000 4275 50  0001 C CNN
	1    14000 4275
	1    0    0    -1  
$EndComp
$Comp
L C_Small C11
U 1 1 5814C173
P 13150 4475
F 0 "C11" H 13160 4545 50  0000 L CNN
F 1 "100nF" H 13160 4395 50  0000 L CNN
F 2 "" H 13150 4475 50  0000 C CNN
F 3 "" H 13150 4475 50  0000 C CNN
	1    13150 4475
	0    1    1    0   
$EndComp
Text Label 13250 4325 2    60   ~ 0
SHARP4
$Comp
L R_Small R11
U 1 1 5814C17A
P 13100 4175
F 0 "R11" H 13130 4195 50  0000 L CNN
F 1 "1R" H 13130 4135 50  0000 L CNN
F 2 "" H 13100 4175 50  0000 C CNN
F 3 "" H 13100 4175 50  0000 C CNN
	1    13100 4175
	0    -1   -1   0   
$EndComp
$Comp
L +5V #PWR49
U 1 1 5814C180
P 13250 4075
F 0 "#PWR49" H 13250 3925 50  0001 C CNN
F 1 "+5V" H 13250 4215 50  0000 C CNN
F 2 "" H 13250 4075 50  0000 C CNN
F 3 "" H 13250 4075 50  0000 C CNN
	1    13250 4075
	1    0    0    -1  
$EndComp
$Comp
L GND #PWR47
U 1 1 5814C190
P 12875 4475
F 0 "#PWR47" H 12875 4225 50  0001 C CNN
F 1 "GND" H 12875 4325 50  0000 C CNN
F 2 "" H 12875 4475 50  0000 C CNN
F 3 "" H 12875 4475 50  0000 C CNN
	1    12875 4475
	1    0    0    -1  
$EndComp
Text Label 1075 4550 2    60   ~ 0
SHARP1
Text Label 1075 4650 2    60   ~ 0
SHARP2
Text Label 1075 4750 2    60   ~ 0
SHARP3
Text Label 1075 4850 2    60   ~ 0
SHARP4
$Comp
L SWITCH SW1
U 1 1 581541C8
P 9125 1300
F 0 "SW1" H 9225 1550 79  0000 C CNN
F 1 "SWITCH" H 9200 1075 79  0000 C CNN
F 2 "" H 9125 1300 157 0000 C CNN
F 3 "" H 9125 1300 157 0000 C CNN
	1    9125 1300
	-1   0    0    1   
$EndComp
$Comp
L VCC #PWR29
U 1 1 58154E01
P 8500 1200
F 0 "#PWR29" H 8500 1050 50  0001 C CNN
F 1 "VCC" H 8500 1350 50  0000 C CNN
F 2 "" H 8500 1200 50  0000 C CNN
F 3 "" H 8500 1200 50  0000 C CNN
	1    8500 1200
	1    0    0    -1  
$EndComp
$Comp
L CONN_01X02 P1
U 1 1 58155166
P 10975 1300
F 0 "P1" H 10975 1450 50  0000 C CNN
F 1 "CONN_01X02" V 11075 1300 50  0000 C CNN
F 2 "" H 10975 1300 50  0000 C CNN
F 3 "" H 10975 1300 50  0000 C CNN
	1    10975 1300
	1    0    0    -1  
$EndComp
$Comp
L GND #PWR35
U 1 1 58155296
P 9625 1500
F 0 "#PWR35" H 9625 1250 50  0001 C CNN
F 1 "GND" H 9625 1350 50  0000 C CNN
F 2 "" H 9625 1500 50  0000 C CNN
F 3 "" H 9625 1500 50  0000 C CNN
	1    9625 1500
	1    0    0    -1  
$EndComp
NoConn ~ 8825 1375
$Comp
L VCC #PWR21
U 1 1 58156727
P 6600 1200
F 0 "#PWR21" H 6600 1050 50  0001 C CNN
F 1 "VCC" H 6600 1350 50  0000 C CNN
F 2 "" H 6600 1200 50  0000 C CNN
F 3 "" H 6600 1200 50  0000 C CNN
	1    6600 1200
	1    0    0    -1  
$EndComp
$Comp
L GND #PWR28
U 1 1 58156789
P 7300 1200
F 0 "#PWR28" H 7300 950 50  0001 C CNN
F 1 "GND" H 7300 1050 50  0000 C CNN
F 2 "" H 7300 1200 50  0000 C CNN
F 3 "" H 7300 1200 50  0000 C CNN
	1    7300 1200
	1    0    0    -1  
$EndComp
$Comp
L R R9
U 1 1 58156B8D
P 6750 1200
F 0 "R9" V 6830 1200 50  0000 C CNN
F 1 "270R" V 6750 1200 50  0000 C CNN
F 2 "" V 6680 1200 50  0000 C CNN
F 3 "" H 6750 1200 50  0000 C CNN
	1    6750 1200
	0    1    1    0   
$EndComp
$Comp
L LED D1
U 1 1 58156F33
P 7100 1200
F 0 "D1" H 7100 1300 50  0000 C CNN
F 1 "LED" H 7100 1100 50  0000 C CNN
F 2 "" H 7100 1200 50  0000 C CNN
F 3 "SMD ZIELONA" H 7100 1200 50  0001 C CNN
	1    7100 1200
	-1   0    0    1   
$EndComp
$Comp
L LM1117 U7
U 1 1 58157D31
P 10700 2600
F 0 "U7" H 10850 2404 60  0000 C CNN
F 1 "LM1117" H 10700 2800 60  0000 C CNN
F 2 "" H 10700 2600 60  0000 C CNN
F 3 "" H 10700 2600 60  0000 C CNN
	1    10700 2600
	1    0    0    -1  
$EndComp
$Comp
L CP C4
U 1 1 5815847B
P 10300 2700
F 0 "C4" H 10325 2800 50  0000 L CNN
F 1 "100uF" H 10325 2600 50  0000 L CNN
F 2 "" H 10338 2550 50  0000 C CNN
F 3 "" H 10300 2700 50  0000 C CNN
	1    10300 2700
	1    0    0    -1  
$EndComp
$Comp
L CP C5
U 1 1 58158543
P 11100 2700
F 0 "C5" H 11125 2800 50  0000 L CNN
F 1 "100uF" H 11125 2600 50  0000 L CNN
F 2 "" H 11138 2550 50  0000 C CNN
F 3 "" H 11100 2700 50  0000 C CNN
	1    11100 2700
	1    0    0    -1  
$EndComp
$Comp
L GND #PWR41
U 1 1 58158794
P 10700 2850
F 0 "#PWR41" H 10700 2600 50  0001 C CNN
F 1 "GND" H 10700 2700 50  0000 C CNN
F 2 "" H 10700 2850 50  0000 C CNN
F 3 "" H 10700 2850 50  0000 C CNN
	1    10700 2850
	1    0    0    -1  
$EndComp
$Comp
L LM1117 U6
U 1 1 58158E65
P 9125 2600
F 0 "U6" H 9275 2404 60  0000 C CNN
F 1 "LM1117" H 9125 2800 60  0000 C CNN
F 2 "" H 9125 2600 60  0000 C CNN
F 3 "" H 9125 2600 60  0000 C CNN
	1    9125 2600
	1    0    0    -1  
$EndComp
$Comp
L VCC #PWR30
U 1 1 58158E6B
P 8725 2550
F 0 "#PWR30" H 8725 2400 50  0001 C CNN
F 1 "VCC" H 8725 2700 50  0000 C CNN
F 2 "" H 8725 2550 50  0000 C CNN
F 3 "" H 8725 2550 50  0000 C CNN
	1    8725 2550
	1    0    0    -1  
$EndComp
$Comp
L CP C2
U 1 1 58158E73
P 8725 2700
F 0 "C2" H 8750 2800 50  0000 L CNN
F 1 "100uF" H 8750 2600 50  0000 L CNN
F 2 "" H 8763 2550 50  0000 C CNN
F 3 "" H 8725 2700 50  0000 C CNN
	1    8725 2700
	1    0    0    -1  
$EndComp
$Comp
L CP C3
U 1 1 58158E79
P 9525 2700
F 0 "C3" H 9550 2800 50  0000 L CNN
F 1 "100uF" H 9550 2600 50  0000 L CNN
F 2 "" H 9563 2550 50  0000 C CNN
F 3 "" H 9525 2700 50  0000 C CNN
	1    9525 2700
	1    0    0    -1  
$EndComp
$Comp
L +5V #PWR34
U 1 1 58158E80
P 9525 2550
F 0 "#PWR34" H 9525 2400 50  0001 C CNN
F 1 "+5V" H 9525 2690 50  0000 C CNN
F 2 "" H 9525 2550 50  0000 C CNN
F 3 "" H 9525 2550 50  0000 C CNN
	1    9525 2550
	1    0    0    -1  
$EndComp
$Comp
L GND #PWR31
U 1 1 58158E86
P 9125 2850
F 0 "#PWR31" H 9125 2600 50  0001 C CNN
F 1 "GND" H 9125 2700 50  0000 C CNN
F 2 "" H 9125 2850 50  0000 C CNN
F 3 "" H 9125 2850 50  0000 C CNN
	1    9125 2850
	1    0    0    -1  
$EndComp
$Comp
L +5V #PWR36
U 1 1 58159024
P 10300 2550
F 0 "#PWR36" H 10300 2400 50  0001 C CNN
F 1 "+5V" H 10300 2690 50  0000 C CNN
F 2 "" H 10300 2550 50  0000 C CNN
F 3 "" H 10300 2550 50  0000 C CNN
	1    10300 2550
	1    0    0    -1  
$EndComp
$Comp
L +3.3V #PWR44
U 1 1 5815927B
P 11100 2550
F 0 "#PWR44" H 11100 2400 50  0001 C CNN
F 1 "+3.3V" H 11100 2690 50  0000 C CNN
F 2 "" H 11100 2550 50  0000 C CNN
F 3 "" H 11100 2550 50  0000 C CNN
	1    11100 2550
	1    0    0    -1  
$EndComp
NoConn ~ 1450 2250
NoConn ~ 1450 2450
NoConn ~ 1450 2600
NoConn ~ 1450 2800
NoConn ~ 4450 3750
$Comp
L TB6612 U12
U 1 1 5816150E
P 8800 4700
F 0 "U12" H 8400 3900 50  0000 C CNN
F 1 "TB6612" H 8800 5400 50  0000 C CNN
F 2 "" H 8800 4700 50  0001 C CNN
F 3 "" H 8800 4700 50  0001 C CNN
	1    8800 4700
	1    0    0    -1  
$EndComp
Text Label 9650 4600 0    60   ~ 0
ENGINE1_OUT
Text Label 9650 5050 0    60   ~ 0
ENGINE1_OUT
$Comp
L VCC #PWR37
U 1 1 5816D976
P 10525 3975
F 0 "#PWR37" H 10525 3825 50  0001 C CNN
F 1 "VCC" H 10525 4125 50  0000 C CNN
F 2 "" H 10525 3975 50  0000 C CNN
F 3 "" H 10525 3975 50  0000 C CNN
	1    10525 3975
	1    0    0    -1  
$EndComp
$Comp
L C_Small C16
U 1 1 5816FDC7
P 9925 4175
F 0 "C16" H 9935 4245 50  0000 L CNN
F 1 "100nF" H 9935 4095 50  0000 L CNN
F 2 "" H 9925 4175 50  0000 C CNN
F 3 "" H 9925 4175 50  0000 C CNN
	1    9925 4175
	1    0    0    -1  
$EndComp
$Comp
L CP1_Small C17
U 1 1 5816FE48
P 10275 4175
F 0 "C17" H 10285 4245 50  0000 L CNN
F 1 "10uF" H 10285 4095 50  0000 L CNN
F 2 "" H 10275 4175 50  0000 C CNN
F 3 "" H 10275 4175 50  0000 C CNN
	1    10275 4175
	1    0    0    -1  
$EndComp
$Comp
L GND #PWR38
U 1 1 58170222
P 10525 4375
F 0 "#PWR38" H 10525 4125 50  0001 C CNN
F 1 "GND" H 10525 4225 50  0000 C CNN
F 2 "" H 10525 4375 50  0000 C CNN
F 3 "" H 10525 4375 50  0000 C CNN
	1    10525 4375
	1    0    0    -1  
$EndComp
$Comp
L C_Small C15
U 1 1 58177407
P 6400 4300
F 0 "C15" H 6410 4370 50  0000 L CNN
F 1 "100nF" H 6410 4220 50  0000 L CNN
F 2 "" H 6400 4300 50  0000 C CNN
F 3 "" H 6400 4300 50  0000 C CNN
	1    6400 4300
	1    0    0    -1  
$EndComp
$Comp
L +3.3V #PWR17
U 1 1 58177B7F
P 6400 4075
F 0 "#PWR17" H 6400 3925 50  0001 C CNN
F 1 "+3.3V" H 6400 4215 50  0000 C CNN
F 2 "" H 6400 4075 50  0000 C CNN
F 3 "" H 6400 4075 50  0000 C CNN
	1    6400 4075
	1    0    0    -1  
$EndComp
Text Label 975  3350 2    60   ~ 0
PWM1
Text Label 975  3950 2    60   ~ 0
DIR1A
Text Label 975  3450 2    60   ~ 0
PWM2
Text Label 975  4050 2    60   ~ 0
DIR1B
$Comp
L SW_PUSH SW2
U 1 1 581649C8
P 1350 7225
F 0 "SW2" H 1500 7335 50  0000 C CNN
F 1 "SW_PUSH" H 1350 7145 50  0000 C CNN
F 2 "" H 1350 7225 50  0000 C CNN
F 3 "" H 1350 7225 50  0000 C CNN
	1    1350 7225
	0    -1   -1   0   
$EndComp
$Comp
L LED_RGB D2
U 1 1 581650A9
P 10750 10350
F 0 "D2" H 10750 10775 50  0000 C CNN
F 1 "LED_RGB" H 10750 10700 50  0000 C CNN
F 2 "" H 10750 10300 50  0000 C CNN
F 3 "" H 10750 10300 50  0000 C CNN
	1    10750 10350
	-1   0    0    1   
$EndComp
$Comp
L R R18
U 1 1 5816577C
P 10225 10150
F 0 "R18" V 10305 10150 50  0000 C CNN
F 1 "10R" V 10225 10150 50  0000 C CNN
F 2 "" V 10155 10150 50  0000 C CNN
F 3 "" H 10225 10150 50  0000 C CNN
	1    10225 10150
	0    1    1    0   
$EndComp
$Comp
L R R19
U 1 1 58165BC7
P 10225 10350
F 0 "R19" V 10305 10350 50  0000 C CNN
F 1 "10R" V 10225 10350 50  0000 C CNN
F 2 "" V 10155 10350 50  0000 C CNN
F 3 "" H 10225 10350 50  0000 C CNN
	1    10225 10350
	0    1    1    0   
$EndComp
$Comp
L R R20
U 1 1 58165D90
P 10225 10550
F 0 "R20" V 10305 10550 50  0000 C CNN
F 1 "65R" V 10225 10550 50  0000 C CNN
F 2 "" V 10155 10550 50  0000 C CNN
F 3 "" H 10225 10550 50  0000 C CNN
	1    10225 10550
	0    1    1    0   
$EndComp
$Comp
L GND #PWR45
U 1 1 58167BF6
P 11175 10550
F 0 "#PWR45" H 11175 10300 50  0001 C CNN
F 1 "GND" H 11175 10400 50  0000 C CNN
F 2 "" H 11175 10550 50  0000 C CNN
F 3 "" H 11175 10550 50  0000 C CNN
	1    11175 10550
	1    0    0    -1  
$EndComp
Text Label 9925 10150 2    60   ~ 0
LED_B
Text Label 9925 10350 2    60   ~ 0
LED_G
Text Label 9925 10550 2    60   ~ 0
LED_R
Text Label 1450 3550 2    60   ~ 0
LED_B
Text Label 1450 3750 2    60   ~ 0
LED_R
Text Label 2600 7825 1    60   ~ 0
TACTIC_BUTTON
$Comp
L GND #PWR5
U 1 1 5816D165
P 1575 8300
F 0 "#PWR5" H 1575 8050 50  0001 C CNN
F 1 "GND" H 1575 8150 50  0000 C CNN
F 2 "" H 1575 8300 50  0000 C CNN
F 3 "" H 1575 8300 50  0000 C CNN
	1    1575 8300
	1    0    0    -1  
$EndComp
Text Label 4450 2650 0    60   ~ 0
TACTIC_BUTTON
Text Label 4675 7825 1    60   ~ 0
START_BUTTON
Text Label 4450 2750 0    60   ~ 0
START_BUTTON
$Comp
L GND #PWR18
U 1 1 581FC6F0
P 6400 5400
F 0 "#PWR18" H 6400 5150 50  0001 C CNN
F 1 "GND" H 6400 5250 50  0000 C CNN
F 2 "" H 6400 5400 50  0000 C CNN
F 3 "" H 6400 5400 50  0000 C CNN
	1    6400 5400
	1    0    0    -1  
$EndComp
Text Label 6925 4900 2    60   ~ 0
DIR1B
Text Label 7375 4800 2    60   ~ 0
DIR1A
Text Label 7825 4350 2    60   ~ 0
PWM1
Text Label 7850 4700 2    60   ~ 0
PWM1
$Comp
L TB6612 U13
U 1 1 582050CC
P 8800 6525
F 0 "U13" H 8400 5725 50  0000 C CNN
F 1 "TB6612" H 8800 7225 50  0000 C CNN
F 2 "" H 8800 6525 50  0001 C CNN
F 3 "" H 8800 6525 50  0001 C CNN
	1    8800 6525
	1    0    0    -1  
$EndComp
Text Label 9650 6425 0    60   ~ 0
ENGINE3_OUT
$Comp
L VCC #PWR39
U 1 1 582050DA
P 10525 5800
F 0 "#PWR39" H 10525 5650 50  0001 C CNN
F 1 "VCC" H 10525 5950 50  0000 C CNN
F 2 "" H 10525 5800 50  0000 C CNN
F 3 "" H 10525 5800 50  0000 C CNN
	1    10525 5800
	1    0    0    -1  
$EndComp
$Comp
L C_Small C20
U 1 1 582050F0
P 9925 6000
F 0 "C20" H 9935 6070 50  0000 L CNN
F 1 "100nF" H 9935 5920 50  0000 L CNN
F 2 "" H 9925 6000 50  0000 C CNN
F 3 "" H 9925 6000 50  0000 C CNN
	1    9925 6000
	1    0    0    -1  
$EndComp
$Comp
L CP1_Small C21
U 1 1 582050F6
P 10275 6000
F 0 "C21" H 10285 6070 50  0000 L CNN
F 1 "22uF" H 10285 5920 50  0000 L CNN
F 2 "" H 10275 6000 50  0000 C CNN
F 3 "" H 10275 6000 50  0000 C CNN
	1    10275 6000
	1    0    0    -1  
$EndComp
$Comp
L GND #PWR40
U 1 1 582050FC
P 10525 6200
F 0 "#PWR40" H 10525 5950 50  0001 C CNN
F 1 "GND" H 10525 6050 50  0000 C CNN
F 2 "" H 10525 6200 50  0000 C CNN
F 3 "" H 10525 6200 50  0000 C CNN
	1    10525 6200
	1    0    0    -1  
$EndComp
$Comp
L C_Small C18
U 1 1 58205102
P 6400 6125
F 0 "C18" H 6410 6195 50  0000 L CNN
F 1 "100nF" H 6410 6045 50  0000 L CNN
F 2 "" H 6400 6125 50  0000 C CNN
F 3 "" H 6400 6125 50  0000 C CNN
	1    6400 6125
	1    0    0    -1  
$EndComp
$Comp
L C_Small C19
U 1 1 58205108
P 6750 6125
F 0 "C19" H 6760 6195 50  0000 L CNN
F 1 "10uF" H 6760 6045 50  0000 L CNN
F 2 "" H 6750 6125 50  0000 C CNN
F 3 "" H 6750 6125 50  0000 C CNN
	1    6750 6125
	1    0    0    -1  
$EndComp
$Comp
L +3.3V #PWR19
U 1 1 5820510E
P 6400 5900
F 0 "#PWR19" H 6400 5750 50  0001 C CNN
F 1 "+3.3V" H 6400 6040 50  0000 C CNN
F 2 "" H 6400 5900 50  0000 C CNN
F 3 "" H 6400 5900 50  0000 C CNN
	1    6400 5900
	1    0    0    -1  
$EndComp
$Comp
L GND #PWR20
U 1 1 58205121
P 6400 7225
F 0 "#PWR20" H 6400 6975 50  0001 C CNN
F 1 "GND" H 6400 7075 50  0000 C CNN
F 2 "" H 6400 7225 50  0000 C CNN
F 3 "" H 6400 7225 50  0000 C CNN
	1    6400 7225
	1    0    0    -1  
$EndComp
Text Label 6925 6725 2    60   ~ 0
DIR2B
Text Label 7375 6625 2    60   ~ 0
DIR2A
Text Label 7825 6175 2    60   ~ 0
PWM2
Text Label 7850 6525 2    60   ~ 0
PWM2
Text Label 975  4150 2    60   ~ 0
DIR2A
Text Label 975  4250 2    60   ~ 0
DIR2B
$Comp
L +3.3V #PWR4
U 1 1 5820F5B7
P 1575 6525
F 0 "#PWR4" H 1575 6375 50  0001 C CNN
F 1 "+3.3V" H 1575 6665 50  0000 C CNN
F 2 "" H 1575 6525 50  0000 C CNN
F 3 "" H 1575 6525 50  0000 C CNN
	1    1575 6525
	1    0    0    -1  
$EndComp
$Comp
L R R15
U 1 1 582118CC
P 1825 6625
F 0 "R15" V 1905 6625 50  0000 C CNN
F 1 "100R" V 1825 6625 50  0000 C CNN
F 2 "" V 1755 6625 50  0000 C CNN
F 3 "" H 1825 6625 50  0000 C CNN
	1    1825 6625
	0    1    1    0   
$EndComp
$Comp
L C C22
U 1 1 58211D14
P 2075 7225
F 0 "C22" H 2100 7325 50  0000 L CNN
F 1 "100nF" H 2100 7125 50  0000 L CNN
F 2 "" H 2113 7075 50  0000 C CNN
F 3 "" H 2075 7225 50  0000 C CNN
	1    2075 7225
	1    0    0    -1  
$EndComp
$Comp
L R R14
U 1 1 5821272D
P 1575 8100
F 0 "R14" V 1655 8100 50  0000 C CNN
F 1 "220k" V 1575 8100 50  0000 C CNN
F 2 "" V 1505 8100 50  0000 C CNN
F 3 "" H 1575 8100 50  0000 C CNN
	1    1575 8100
	1    0    0    -1  
$EndComp
$Comp
L R R16
U 1 1 582131BD
P 2325 7825
F 0 "R16" V 2405 7825 50  0000 C CNN
F 1 "330R" V 2325 7825 50  0000 C CNN
F 2 "" V 2255 7825 50  0000 C CNN
F 3 "" H 2325 7825 50  0000 C CNN
	1    2325 7825
	0    1    1    0   
$EndComp
$Comp
L SW_PUSH SW3
U 1 1 58213FA8
P 3425 7225
F 0 "SW3" H 3575 7335 50  0000 C CNN
F 1 "SW_PUSH" H 3425 7145 50  0000 C CNN
F 2 "" H 3425 7225 50  0000 C CNN
F 3 "" H 3425 7225 50  0000 C CNN
	1    3425 7225
	0    -1   -1   0   
$EndComp
$Comp
L GND #PWR13
U 1 1 58213FAF
P 3650 8300
F 0 "#PWR13" H 3650 8050 50  0001 C CNN
F 1 "GND" H 3650 8150 50  0000 C CNN
F 2 "" H 3650 8300 50  0000 C CNN
F 3 "" H 3650 8300 50  0000 C CNN
	1    3650 8300
	1    0    0    -1  
$EndComp
$Comp
L +3.3V #PWR12
U 1 1 58213FB5
P 3650 6525
F 0 "#PWR12" H 3650 6375 50  0001 C CNN
F 1 "+3.3V" H 3650 6665 50  0000 C CNN
F 2 "" H 3650 6525 50  0000 C CNN
F 3 "" H 3650 6525 50  0000 C CNN
	1    3650 6525
	1    0    0    -1  
$EndComp
$Comp
L R R21
U 1 1 58213FBB
P 3900 6625
F 0 "R21" V 3980 6625 50  0000 C CNN
F 1 "100R" V 3900 6625 50  0000 C CNN
F 2 "" V 3830 6625 50  0000 C CNN
F 3 "" H 3900 6625 50  0000 C CNN
	1    3900 6625
	0    1    1    0   
$EndComp
$Comp
L C C23
U 1 1 58213FC1
P 4150 7225
F 0 "C23" H 4175 7325 50  0000 L CNN
F 1 "100nF" H 4175 7125 50  0000 L CNN
F 2 "" H 4188 7075 50  0000 C CNN
F 3 "" H 4150 7225 50  0000 C CNN
	1    4150 7225
	1    0    0    -1  
$EndComp
$Comp
L R R17
U 1 1 58213FD5
P 3650 8100
F 0 "R17" V 3730 8100 50  0000 C CNN
F 1 "220k" V 3650 8100 50  0000 C CNN
F 2 "" V 3580 8100 50  0000 C CNN
F 3 "" H 3650 8100 50  0000 C CNN
	1    3650 8100
	1    0    0    -1  
$EndComp
$Comp
L R R22
U 1 1 58213FDD
P 4400 7825
F 0 "R22" V 4480 7825 50  0000 C CNN
F 1 "330R" V 4400 7825 50  0000 C CNN
F 2 "" V 4330 7825 50  0000 C CNN
F 3 "" H 4400 7825 50  0000 C CNN
	1    4400 7825
	0    1    1    0   
$EndComp
$Comp
L SW_PUSH SW4
U 1 1 5821526F
P 4025 9300
F 0 "SW4" H 4175 9410 50  0000 C CNN
F 1 "SW_PUSH" H 4025 9220 50  0000 C CNN
F 2 "" H 4025 9300 50  0000 C CNN
F 3 "" H 4025 9300 50  0000 C CNN
	1    4025 9300
	1    0    0    -1  
$EndComp
$Comp
L GND #PWR11
U 1 1 58215275
P 3425 10225
F 0 "#PWR11" H 3425 9975 50  0001 C CNN
F 1 "GND" H 3425 10075 50  0000 C CNN
F 2 "" H 3425 10225 50  0000 C CNN
F 3 "" H 3425 10225 50  0000 C CNN
	1    3425 10225
	1    0    0    -1  
$EndComp
$Comp
L GND #PWR16
U 1 1 582184B2
P 6375 2950
F 0 "#PWR16" H 6375 2700 50  0001 C CNN
F 1 "GND" H 6375 2800 50  0000 C CNN
F 2 "" H 6375 2950 50  0000 C CNN
F 3 "" H 6375 2950 50  0000 C CNN
	1    6375 2950
	1    0    0    -1  
$EndComp
Text Label 6425 2725 2    60   ~ 0
SWDIO
Text Label 6750 2850 2    60   ~ 0
NRST
Text Label 5175 3650 0    60   ~ 0
SWCLK
Text Label 5175 3550 0    60   ~ 0
SWDIO
Text Notes 6250 2225 0    60   ~ 0
GNIAZDO PROGRAMATORA\n
Text Notes 9925 9925 0    60   ~ 0
DIODA SMD RGB 5050
Text Notes 2700 6150 0    60   ~ 0
SWITCH'E\n
Text Notes 7950 3850 0    60   ~ 0
STEROWNIKI SILNIKÓW\n\n
Text Notes 9700 2150 0    60   ~ 0
STABILIZATORY\n
Text Notes 9325 875  0    60   ~ 0
PRZEŁĄCZNIK ZASILANIA\n
Text Notes 6550 950  0    60   ~ 0
DIODA ZASILANIA
Text Notes 13875 625  0    60   ~ 0
CZUJNIKI BIAŁEJ LINII\n
Text Notes 13425 2800 0    60   ~ 0
CZUJNIKI WYKRYCIA PRZECIWNIKA\n
$Comp
L CP1_Small C14
U 1 1 5821B904
P 6750 4300
F 0 "C14" H 6760 4370 50  0000 L CNN
F 1 "10uF" H 6760 4220 50  0000 L CNN
F 2 "" H 6750 4300 50  0000 C CNN
F 3 "" H 6750 4300 50  0000 C CNN
	1    6750 4300
	1    0    0    -1  
$EndComp
$Comp
L FUSE F1
U 1 1 58220E68
P 10300 1100
F 0 "F1" H 10400 1150 50  0000 C CNN
F 1 "5A" H 10200 1050 50  0000 C CNN
F 2 "" H 10300 1100 50  0000 C CNN
F 3 "" H 10300 1100 50  0000 C CNN
	1    10300 1100
	1    0    0    -1  
$EndComp
$Comp
L D D3
U 1 1 58222EFD
P 9775 1300
F 0 "D3" H 9775 1400 50  0000 C CNN
F 1 "D" H 9775 1200 50  0000 C CNN
F 2 "" H 9775 1300 50  0000 C CNN
F 3 "" H 9775 1300 50  0000 C CNN
	1    9775 1300
	0    1    1    0   
$EndComp
$Comp
L CONN_01X02 P7
U 1 1 5823215C
P 11425 6750
F 0 "P7" H 11425 6900 50  0000 C CNN
F 1 "CONN_01X02" V 11525 6750 50  0000 C CNN
F 2 "" H 11425 6750 50  0000 C CNN
F 3 "" H 11425 6750 50  0000 C CNN
	1    11425 6750
	1    0    0    -1  
$EndComp
Text Label 9650 4800 0    60   ~ 0
ENGINE2_OUT
Text Label 9650 5300 0    60   ~ 0
ENGINE2_OUT
Text Label 9650 6875 0    60   ~ 0
ENGINE3_OUT
Text Label 9650 6625 0    60   ~ 0
ENGINE4_OUT
Text Label 9650 7125 0    60   ~ 0
ENGINE4_OUT
Text Label 11125 6700 2    60   ~ 0
ENGINE3_OUT
Text Label 11125 6800 2    60   ~ 0
ENGINE4_OUT
$Comp
L CONN_01X02 P8
U 1 1 582392C6
P 11475 4900
F 0 "P8" H 11475 5050 50  0000 C CNN
F 1 "CONN_01X02" V 11575 4900 50  0000 C CNN
F 2 "" H 11475 4900 50  0000 C CNN
F 3 "" H 11475 4900 50  0000 C CNN
	1    11475 4900
	1    0    0    -1  
$EndComp
Text Label 11175 4850 2    60   ~ 0
ENGINE1_OUT
Text Label 11175 4950 2    60   ~ 0
ENGINE2_OUT
Text Label 4725 9300 0    60   ~ 0
NRST
Text Label 1450 2100 2    60   ~ 0
NRST
$Comp
L C C25
U 1 1 582523F8
P 4025 10025
F 0 "C25" H 4050 10125 50  0000 L CNN
F 1 "100nF" H 4050 9925 50  0000 L CNN
F 2 "" H 4063 9875 50  0000 C CNN
F 3 "" H 4025 10025 50  0000 C CNN
	1    4025 10025
	0    1    1    0   
$EndComp
$Comp
L GND #PWR26
U 1 1 58254758
P 7175 5400
F 0 "#PWR26" H 7175 5150 50  0001 C CNN
F 1 "GND" H 7175 5250 50  0000 C CNN
F 2 "" H 7175 5400 50  0000 C CNN
F 3 "" H 7175 5400 50  0000 C CNN
	1    7175 5400
	1    0    0    -1  
$EndComp
$Comp
L GND #PWR27
U 1 1 58254F8C
P 7175 7225
F 0 "#PWR27" H 7175 6975 50  0001 C CNN
F 1 "GND" H 7175 7075 50  0000 C CNN
F 2 "" H 7175 7225 50  0000 C CNN
F 3 "" H 7175 7225 50  0000 C CNN
	1    7175 7225
	1    0    0    -1  
$EndComp
$Comp
L +3.3V #PWR15
U 1 1 58257889
P 6375 2500
F 0 "#PWR15" H 6375 2350 50  0001 C CNN
F 1 "+3.3V" H 6375 2640 50  0000 C CNN
F 2 "" H 6375 2500 50  0000 C CNN
F 3 "" H 6375 2500 50  0000 C CNN
	1    6375 2500
	1    0    0    -1  
$EndComp
Text Label 1450 3650 2    60   ~ 0
LED_G
$Comp
L CONN_01X04 P3
U 1 1 58262BFC
P 7500 8775
F 0 "P3" H 7500 9025 50  0000 C CNN
F 1 "CONN_01X04" V 7600 8775 50  0000 C CNN
F 2 "" H 7500 8775 50  0000 C CNN
F 3 "" H 7500 8775 50  0000 C CNN
	1    7500 8775
	1    0    0    -1  
$EndComp
$Comp
L GND #PWR25
U 1 1 5826352B
P 6950 8875
F 0 "#PWR25" H 6950 8625 50  0001 C CNN
F 1 "GND" H 6950 8725 50  0000 C CNN
F 2 "" H 6950 8875 50  0000 C CNN
F 3 "" H 6950 8875 50  0000 C CNN
	1    6950 8875
	1    0    0    -1  
$EndComp
Text Label 1450 4350 2    60   ~ 0
RX_B
Text Label 1450 4450 2    60   ~ 0
TX_B
Text Label 7250 8925 2    60   ~ 0
RX_B
Text Label 7250 8825 2    60   ~ 0
TX_B
Text Notes 6525 8225 0    60   ~ 0
WYJSĆIE POD MODUŁ BLUETOOTH
Text Label 5175 2850 0    60   ~ 0
ENC_1A
Text Label 5175 2950 0    60   ~ 0
ENC_1B
Text Label 5175 3050 0    60   ~ 0
ENC_2A
Text Label 5175 3150 0    60   ~ 0
ENC_2B
$Comp
L CONN_01X04 P5
U 1 1 5826A132
P 10225 8775
F 0 "P5" H 10225 9025 50  0000 C CNN
F 1 "CONN_01X04" V 10325 8775 50  0000 C CNN
F 2 "" H 10225 8775 50  0000 C CNN
F 3 "" H 10225 8775 50  0000 C CNN
	1    10225 8775
	1    0    0    -1  
$EndComp
$Comp
L +3.3V #PWR32
U 1 1 5826A221
P 9500 8575
F 0 "#PWR32" H 9500 8425 50  0001 C CNN
F 1 "+3.3V" H 9500 8715 50  0000 C CNN
F 2 "" H 9500 8575 50  0000 C CNN
F 3 "" H 9500 8575 50  0000 C CNN
	1    9500 8575
	1    0    0    -1  
$EndComp
$Comp
L GND #PWR33
U 1 1 5826A618
P 9500 8925
F 0 "#PWR33" H 9500 8675 50  0001 C CNN
F 1 "GND" H 9500 8775 50  0000 C CNN
F 2 "" H 9500 8925 50  0000 C CNN
F 3 "" H 9500 8925 50  0000 C CNN
	1    9500 8925
	1    0    0    -1  
$EndComp
Text Label 9850 8725 2    60   ~ 0
ENC_1A
Text Label 9850 8825 2    60   ~ 0
ENC_1B
$Comp
L CONN_01X04 P6
U 1 1 5826C743
P 11550 8750
F 0 "P6" H 11550 9000 50  0000 C CNN
F 1 "CONN_01X04" V 11650 8750 50  0000 C CNN
F 2 "" H 11550 8750 50  0000 C CNN
F 3 "" H 11550 8750 50  0000 C CNN
	1    11550 8750
	1    0    0    -1  
$EndComp
$Comp
L +3.3V #PWR42
U 1 1 5826C749
P 10825 8550
F 0 "#PWR42" H 10825 8400 50  0001 C CNN
F 1 "+3.3V" H 10825 8690 50  0000 C CNN
F 2 "" H 10825 8550 50  0000 C CNN
F 3 "" H 10825 8550 50  0000 C CNN
	1    10825 8550
	1    0    0    -1  
$EndComp
$Comp
L GND #PWR43
U 1 1 5826C74F
P 10825 8900
F 0 "#PWR43" H 10825 8650 50  0001 C CNN
F 1 "GND" H 10825 8750 50  0000 C CNN
F 2 "" H 10825 8900 50  0000 C CNN
F 3 "" H 10825 8900 50  0000 C CNN
	1    10825 8900
	1    0    0    -1  
$EndComp
Text Label 11175 8700 2    60   ~ 0
ENC_2A
Text Label 11175 8800 2    60   ~ 0
ENC_2B
Text Notes 9975 8325 0    60   ~ 0
WYJŚCIA POD ENKODERY\n\n
Text Label 1450 3000 2    60   ~ 0
START_MODULE
Text Label 1450 3100 2    60   ~ 0
STOP_MODULE
Text Label 4450 3450 0    60   ~ 0
STOP_BUTTON
Text Label 2525 10375 1    60   ~ 0
STOP_BUTTON
$Comp
L SW_PUSH SW5
U 1 1 582729FF
P 1275 9775
F 0 "SW5" H 1425 9885 50  0000 C CNN
F 1 "SW_PUSH" H 1275 9695 50  0000 C CNN
F 2 "" H 1275 9775 50  0000 C CNN
F 3 "" H 1275 9775 50  0000 C CNN
	1    1275 9775
	0    -1   -1   0   
$EndComp
$Comp
L GND #PWR3
U 1 1 58272A05
P 1500 10850
F 0 "#PWR3" H 1500 10600 50  0001 C CNN
F 1 "GND" H 1500 10700 50  0000 C CNN
F 2 "" H 1500 10850 50  0000 C CNN
F 3 "" H 1500 10850 50  0000 C CNN
	1    1500 10850
	1    0    0    -1  
$EndComp
$Comp
L +3.3V #PWR2
U 1 1 58272A0B
P 1500 9075
F 0 "#PWR2" H 1500 8925 50  0001 C CNN
F 1 "+3.3V" H 1500 9215 50  0000 C CNN
F 2 "" H 1500 9075 50  0000 C CNN
F 3 "" H 1500 9075 50  0000 C CNN
	1    1500 9075
	1    0    0    -1  
$EndComp
$Comp
L R R24
U 1 1 58272A11
P 1750 9175
F 0 "R24" V 1830 9175 50  0000 C CNN
F 1 "100R" V 1750 9175 50  0000 C CNN
F 2 "" V 1680 9175 50  0000 C CNN
F 3 "" H 1750 9175 50  0000 C CNN
	1    1750 9175
	0    1    1    0   
$EndComp
$Comp
L C C24
U 1 1 58272A17
P 2000 9775
F 0 "C24" H 2025 9875 50  0000 L CNN
F 1 "100nF" H 2025 9675 50  0000 L CNN
F 2 "" H 2038 9625 50  0000 C CNN
F 3 "" H 2000 9775 50  0000 C CNN
	1    2000 9775
	1    0    0    -1  
$EndComp
$Comp
L R R23
U 1 1 58272A2F
P 1500 10650
F 0 "R23" V 1580 10650 50  0000 C CNN
F 1 "220k" V 1500 10650 50  0000 C CNN
F 2 "" V 1430 10650 50  0000 C CNN
F 3 "" H 1500 10650 50  0000 C CNN
	1    1500 10650
	1    0    0    -1  
$EndComp
$Comp
L R R25
U 1 1 58272A38
P 2250 10375
F 0 "R25" V 2330 10375 50  0000 C CNN
F 1 "330R" V 2250 10375 50  0000 C CNN
F 2 "" V 2180 10375 50  0000 C CNN
F 3 "" H 2250 10375 50  0000 C CNN
	1    2250 10375
	0    1    1    0   
$EndComp
$Comp
L +3.3V #PWR22
U 1 1 5827418E
P 6650 10200
F 0 "#PWR22" H 6650 10050 50  0001 C CNN
F 1 "+3.3V" H 6650 10340 50  0000 C CNN
F 2 "" H 6650 10200 50  0000 C CNN
F 3 "" H 6650 10200 50  0000 C CNN
	1    6650 10200
	1    0    0    -1  
$EndComp
$Comp
L CONN_01X04 P4
U 1 1 58274290
P 7950 10350
F 0 "P4" H 7950 10600 50  0000 C CNN
F 1 "CONN_01X04" V 8050 10350 50  0000 C CNN
F 2 "" H 7950 10350 50  0000 C CNN
F 3 "" H 7950 10350 50  0000 C CNN
	1    7950 10350
	1    0    0    -1  
$EndComp
$Comp
L GND #PWR23
U 1 1 58274883
P 6650 10300
F 0 "#PWR23" H 6650 10050 50  0001 C CNN
F 1 "GND" H 6650 10150 50  0000 C CNN
F 2 "" H 6650 10300 50  0000 C CNN
F 3 "" H 6650 10300 50  0000 C CNN
	1    6650 10300
	1    0    0    -1  
$EndComp
NoConn ~ 1450 3200
Text Label 7475 10450 2    60   ~ 0
START_MODULE
Text Label 7475 10575 2    60   ~ 0
STOP_MODULE
Text Notes 6650 9925 0    60   ~ 0
WYJSĆIE POD MODUŁ STARTOWY\n
Text Label 6800 2650 2    60   ~ 0
SWCLK
NoConn ~ 4450 3250
NoConn ~ 4450 3350
$Comp
L USB_OTG P2
U 1 1 5825D1F6
P 7275 2750
F 0 "P2" H 7600 2625 50  0000 C CNN
F 1 "USB_OTG" H 7275 2950 50  0000 C CNN
F 2 "" V 7225 2650 50  0000 C CNN
F 3 "" V 7225 2650 50  0000 C CNN
	1    7275 2750
	0    1    1    0   
$EndComp
NoConn ~ 7375 3150
$Comp
L STM32F100C8 U1
U 1 1 581372BF
P 2950 3500
F 0 "U1" H 1650 5150 60  0000 C CNN
F 1 "STM32F100C8" H 4000 1850 60  0000 C CNN
F 2 "LQFP48" H 2950 3500 40  0000 C CIN
F 3 "" H 2950 3500 60  0000 C CNN
	1    2950 3500
	1    0    0    -1  
$EndComp
$Comp
L C_Small C6
U 1 1 58266CBF
P 2300 1125
F 0 "C6" H 2310 1195 50  0000 L CNN
F 1 "100nF" H 2310 1045 50  0000 L CNN
F 2 "" H 2300 1125 50  0000 C CNN
F 3 "" H 2300 1125 50  0000 C CNN
	1    2300 1125
	0    -1   -1   0   
$EndComp
$Comp
L GND #PWR7
U 1 1 5826751D
P 2100 1325
F 0 "#PWR7" H 2100 1075 50  0001 C CNN
F 1 "GND" H 2100 1175 50  0000 C CNN
F 2 "" H 2100 1325 50  0000 C CNN
F 3 "" H 2100 1325 50  0000 C CNN
	1    2100 1325
	1    0    0    -1  
$EndComp
$Comp
L C_Small C7
U 1 1 5826B131
P 2950 1125
F 0 "C7" H 2960 1195 50  0000 L CNN
F 1 "100nF" H 2960 1045 50  0000 L CNN
F 2 "" H 2950 1125 50  0000 C CNN
F 3 "" H 2950 1125 50  0000 C CNN
	1    2950 1125
	0    -1   -1   0   
$EndComp
$Comp
L GND #PWR8
U 1 1 5826B137
P 2750 1325
F 0 "#PWR8" H 2750 1075 50  0001 C CNN
F 1 "GND" H 2750 1175 50  0000 C CNN
F 2 "" H 2750 1325 50  0000 C CNN
F 3 "" H 2750 1325 50  0000 C CNN
	1    2750 1325
	1    0    0    -1  
$EndComp
$Comp
L C_Small C8
U 1 1 5826B3C2
P 3525 1125
F 0 "C8" H 3535 1195 50  0000 L CNN
F 1 "100nF" H 3535 1045 50  0000 L CNN
F 2 "" H 3525 1125 50  0000 C CNN
F 3 "" H 3525 1125 50  0000 C CNN
	1    3525 1125
	0    -1   -1   0   
$EndComp
$Comp
L GND #PWR10
U 1 1 5826B3C8
P 3325 1325
F 0 "#PWR10" H 3325 1075 50  0001 C CNN
F 1 "GND" H 3325 1175 50  0000 C CNN
F 2 "" H 3325 1325 50  0000 C CNN
F 3 "" H 3325 1325 50  0000 C CNN
	1    3325 1325
	1    0    0    -1  
$EndComp
$Comp
L C_Small C9
U 1 1 5826B518
P 4125 1125
F 0 "C9" H 4135 1195 50  0000 L CNN
F 1 "100nF" H 4135 1045 50  0000 L CNN
F 2 "" H 4125 1125 50  0000 C CNN
F 3 "" H 4125 1125 50  0000 C CNN
	1    4125 1125
	0    -1   -1   0   
$EndComp
$Comp
L GND #PWR14
U 1 1 5826B51E
P 3925 1325
F 0 "#PWR14" H 3925 1075 50  0001 C CNN
F 1 "GND" H 3925 1175 50  0000 C CNN
F 2 "" H 3925 1325 50  0000 C CNN
F 3 "" H 3925 1325 50  0000 C CNN
	1    3925 1325
	1    0    0    -1  
$EndComp
$Comp
L CP1_Small C1
U 1 1 58262D3D
P 1625 1100
F 0 "C1" H 1635 1170 50  0000 L CNN
F 1 "100nF" H 1635 1020 50  0000 L CNN
F 2 "" H 1625 1100 50  0000 C CNN
F 3 "" H 1625 1100 50  0000 C CNN
	1    1625 1100
	1    0    0    -1  
$EndComp
$Comp
L GND #PWR6
U 1 1 5826302A
P 1625 1325
F 0 "#PWR6" H 1625 1075 50  0001 C CNN
F 1 "GND" H 1625 1175 50  0000 C CNN
F 2 "" H 1625 1325 50  0000 C CNN
F 3 "" H 1625 1325 50  0000 C CNN
	1    1625 1325
	1    0    0    -1  
$EndComp
Wire Wire Line
	12975 1175 12875 1175
Wire Wire Line
	12875 1175 12875 875 
Wire Wire Line
	12875 875  12975 875 
Wire Wire Line
	13275 875  13875 875 
Wire Wire Line
	13575 1175 14125 1175
Connection ~ 13875 875 
Wire Wire Line
	12975 1375 12875 1375
Wire Wire Line
	12875 1375 12875 1525
Wire Wire Line
	12875 1525 13575 1525
Wire Wire Line
	13575 1525 13575 1375
Wire Wire Line
	13575 1375 13875 1375
Connection ~ 13875 1175
Connection ~ 13575 1375
Wire Wire Line
	14550 1175 14450 1175
Wire Wire Line
	14450 1175 14450 875 
Wire Wire Line
	14450 875  14550 875 
Wire Wire Line
	14850 875  15450 875 
Wire Wire Line
	15150 1175 15700 1175
Connection ~ 15450 875 
Wire Wire Line
	14550 1375 14450 1375
Wire Wire Line
	14450 1375 14450 1525
Wire Wire Line
	14450 1525 15150 1525
Wire Wire Line
	15150 1525 15150 1375
Wire Wire Line
	15150 1375 15450 1375
Connection ~ 15450 1175
Connection ~ 15150 1375
Wire Wire Line
	12975 2100 12875 2100
Wire Wire Line
	12875 2100 12875 1800
Wire Wire Line
	12875 1800 12975 1800
Wire Wire Line
	13275 1800 13875 1800
Wire Wire Line
	13575 2100 14125 2100
Connection ~ 13875 1800
Wire Wire Line
	12975 2300 12875 2300
Wire Wire Line
	12875 2300 12875 2450
Wire Wire Line
	12875 2450 13575 2450
Wire Wire Line
	13575 2450 13575 2300
Wire Wire Line
	13575 2300 13875 2300
Connection ~ 13875 2100
Connection ~ 13575 2300
Wire Wire Line
	14550 2100 14450 2100
Wire Wire Line
	14450 2100 14450 1800
Wire Wire Line
	14450 1800 14550 1800
Wire Wire Line
	14850 1800 15450 1800
Wire Wire Line
	15150 2100 15700 2100
Connection ~ 15450 1800
Wire Wire Line
	14550 2300 14450 2300
Wire Wire Line
	14450 2300 14450 2450
Wire Wire Line
	14450 2450 15150 2450
Wire Wire Line
	15150 2450 15150 2300
Wire Wire Line
	15150 2300 15450 2300
Connection ~ 15450 2100
Connection ~ 15150 2300
Wire Wire Line
	2650 5250 3250 5250
Connection ~ 2950 5250
Connection ~ 2800 5250
Wire Wire Line
	2950 5300 2950 5250
Wire Wire Line
	14775 3525 14775 3525
Wire Wire Line
	14400 3225 14400 3525
Wire Wire Line
	14400 3525 14575 3525
Wire Wire Line
	14775 3225 14725 3225
Wire Wire Line
	14775 3375 14775 3375
Wire Wire Line
	14775 3375 14775 3325
Connection ~ 14775 3375
Wire Wire Line
	14400 3225 14525 3225
Wire Wire Line
	14775 3425 14400 3425
Connection ~ 14400 3425
Wire Wire Line
	13250 3525 13250 3525
Wire Wire Line
	12875 3225 12875 3525
Wire Wire Line
	12875 3525 13050 3525
Wire Wire Line
	13250 3225 13200 3225
Wire Wire Line
	13250 3375 13250 3375
Wire Wire Line
	13250 3375 13250 3325
Connection ~ 13250 3375
Wire Wire Line
	12875 3225 13000 3225
Wire Wire Line
	13250 3425 12875 3425
Connection ~ 12875 3425
Wire Wire Line
	14775 4475 14775 4475
Wire Wire Line
	14400 4175 14400 4475
Wire Wire Line
	14400 4475 14575 4475
Wire Wire Line
	14775 4175 14725 4175
Wire Wire Line
	14775 4325 14775 4325
Wire Wire Line
	14775 4325 14775 4275
Connection ~ 14775 4325
Wire Wire Line
	14400 4175 14525 4175
Wire Wire Line
	14775 4375 14400 4375
Connection ~ 14400 4375
Wire Wire Line
	13250 4475 13250 4475
Wire Wire Line
	12875 4175 12875 4475
Wire Wire Line
	12875 4475 13050 4475
Wire Wire Line
	13250 4175 13200 4175
Wire Wire Line
	13250 4325 13250 4325
Wire Wire Line
	13250 4325 13250 4275
Connection ~ 13250 4325
Wire Wire Line
	12875 4175 13000 4175
Wire Wire Line
	13250 4375 12875 4375
Connection ~ 12875 4375
Wire Wire Line
	8500 1200 8825 1200
Wire Wire Line
	10300 2850 11100 2850
Connection ~ 10700 2850
Wire Wire Line
	8725 2850 9525 2850
Connection ~ 9125 2850
Wire Wire Line
	9550 4500 9550 4600
Wire Wire Line
	9550 4950 9550 5050
Wire Wire Line
	7375 4800 8050 4800
Wire Wire Line
	7450 4550 7450 4800
Wire Wire Line
	7450 4550 8050 4550
Wire Wire Line
	9550 3975 9550 4350
Connection ~ 9550 4250
Wire Wire Line
	9550 3975 10525 3975
Wire Wire Line
	11175 10550 10950 10550
Wire Wire Line
	11175 10150 11175 10550
Wire Wire Line
	11175 10350 10950 10350
Wire Wire Line
	11175 10150 10950 10150
Connection ~ 11175 10350
Connection ~ 11175 10550
Wire Wire Line
	1350 6625 1350 6925
Connection ~ 9550 4150
Wire Wire Line
	9925 4075 9925 3975
Connection ~ 9925 3975
Wire Wire Line
	10275 4075 10275 3975
Connection ~ 10275 3975
Wire Wire Line
	9925 4275 9925 4375
Wire Wire Line
	9925 4375 10525 4375
Wire Wire Line
	10275 4375 10275 4275
Connection ~ 10275 4375
Wire Wire Line
	6400 4075 6400 4200
Wire Wire Line
	6400 4400 6400 5400
Wire Wire Line
	6400 4475 6750 4475
Wire Wire Line
	6750 4475 6750 4400
Wire Wire Line
	6400 4150 8050 4150
Wire Wire Line
	6750 4150 6750 4200
Connection ~ 6400 4150
Connection ~ 8050 4150
Connection ~ 6750 4150
Wire Wire Line
	8050 4150 8050 4250
Wire Wire Line
	8050 4450 7000 4450
Wire Wire Line
	7000 4450 7000 4900
Wire Wire Line
	6925 4900 8050 4900
Connection ~ 7000 4900
Connection ~ 7450 4800
Wire Wire Line
	7850 4700 8050 4700
Wire Wire Line
	7825 4350 8050 4350
Wire Wire Line
	8050 5000 6400 5000
Connection ~ 6400 5000
Wire Wire Line
	7175 5400 8050 5400
Wire Wire Line
	8050 5100 7175 5100
Wire Wire Line
	7175 5100 7175 5400
Wire Wire Line
	8050 5200 7175 5200
Connection ~ 7175 5200
Wire Wire Line
	8050 5300 7175 5300
Connection ~ 7175 5300
Wire Wire Line
	9550 6325 9550 6425
Wire Wire Line
	9550 6775 9550 6875
Wire Wire Line
	7375 6625 8050 6625
Wire Wire Line
	7450 6375 7450 6625
Wire Wire Line
	7450 6375 8050 6375
Wire Wire Line
	9550 5800 9550 6175
Connection ~ 9550 6075
Wire Wire Line
	9550 5800 10525 5800
Connection ~ 9550 5975
Wire Wire Line
	9925 5900 9925 5800
Connection ~ 9925 5800
Wire Wire Line
	10275 5900 10275 5800
Connection ~ 10275 5800
Wire Wire Line
	9925 6100 9925 6200
Wire Wire Line
	9925 6200 10525 6200
Wire Wire Line
	10275 6200 10275 6100
Connection ~ 10275 6200
Wire Wire Line
	6400 5900 6400 6025
Wire Wire Line
	6400 6225 6400 7225
Wire Wire Line
	6400 6300 6750 6300
Wire Wire Line
	6750 6300 6750 6225
Wire Wire Line
	6400 5975 8050 5975
Wire Wire Line
	6750 5975 6750 6025
Connection ~ 6400 5975
Connection ~ 8050 5975
Connection ~ 6750 5975
Wire Wire Line
	8050 5975 8050 6075
Wire Wire Line
	8050 6275 7000 6275
Wire Wire Line
	7000 6275 7000 6725
Wire Wire Line
	6925 6725 8050 6725
Connection ~ 7000 6725
Connection ~ 7450 6625
Wire Wire Line
	7850 6525 8050 6525
Wire Wire Line
	7825 6175 8050 6175
Wire Wire Line
	8050 6825 6400 6825
Connection ~ 6400 6825
Wire Wire Line
	7175 7225 8050 7225
Wire Wire Line
	8050 6925 7175 6925
Wire Wire Line
	7175 6925 7175 7225
Wire Wire Line
	8050 7025 7175 7025
Connection ~ 7175 7025
Wire Wire Line
	8050 7125 7175 7125
Connection ~ 7175 7125
Wire Wire Line
	975  3950 1450 3950
Wire Wire Line
	975  4050 1450 4050
Wire Wire Line
	975  4150 1450 4150
Wire Wire Line
	975  4250 1450 4250
Wire Wire Line
	1450 3350 975  3350
Wire Wire Line
	975  3450 1450 3450
Wire Wire Line
	9925 10150 10075 10150
Wire Wire Line
	10375 10150 10550 10150
Wire Wire Line
	10075 10350 9925 10350
Wire Wire Line
	10375 10350 10550 10350
Wire Wire Line
	9925 10550 10075 10550
Wire Wire Line
	10375 10550 10550 10550
Wire Wire Line
	9550 6425 9650 6425
Wire Wire Line
	9550 4600 9650 4600
Wire Wire Line
	9550 5050 9650 5050
Connection ~ 1575 6925
Connection ~ 1575 6625
Wire Wire Line
	1350 7525 1350 7825
Connection ~ 1575 7525
Wire Wire Line
	1575 6525 1575 6925
Connection ~ 1575 7825
Wire Wire Line
	1350 7825 2175 7825
Wire Wire Line
	1575 7525 1350 7525
Wire Wire Line
	1575 6925 1350 6925
Wire Wire Line
	1350 6625 1675 6625
Wire Wire Line
	1975 6625 2075 6625
Wire Wire Line
	2075 6625 2075 7075
Wire Wire Line
	2075 7825 2075 7375
Wire Wire Line
	1575 7525 1575 7950
Wire Wire Line
	1575 8300 1575 8250
Connection ~ 2075 7825
Wire Wire Line
	2475 7825 2600 7825
Wire Wire Line
	3425 6625 3425 6925
Connection ~ 3650 6925
Connection ~ 3650 6625
Wire Wire Line
	3425 7525 3425 7825
Connection ~ 3650 7525
Wire Wire Line
	3650 6525 3650 6925
Connection ~ 3650 7825
Wire Wire Line
	3425 7825 4250 7825
Wire Wire Line
	3650 7525 3425 7525
Wire Wire Line
	3650 6925 3425 6925
Wire Wire Line
	3425 6625 3750 6625
Wire Wire Line
	4050 6625 4150 6625
Wire Wire Line
	4150 6625 4150 7075
Wire Wire Line
	4150 7825 4150 7375
Wire Wire Line
	3650 7525 3650 7950
Wire Wire Line
	3650 8300 3650 8250
Connection ~ 4150 7825
Wire Wire Line
	4550 7825 4675 7825
Wire Wire Line
	4325 9300 4725 9300
Connection ~ 4325 9525
Connection ~ 4625 9525
Wire Wire Line
	3725 9300 3425 9300
Connection ~ 3725 9525
Wire Wire Line
	4625 9525 4325 9525
Connection ~ 3425 9525
Wire Wire Line
	3725 9525 3725 9300
Wire Wire Line
	4325 9525 4325 9300
Wire Wire Line
	4625 9300 4625 10025
Wire Wire Line
	4625 10025 4175 10025
Wire Wire Line
	3425 10025 3875 10025
Connection ~ 3425 10025
Wire Wire Line
	1075 4550 1450 4550
Wire Wire Line
	1075 4650 1450 4650
Wire Wire Line
	1075 4750 1450 4750
Wire Wire Line
	1075 4850 1450 4850
Wire Wire Line
	10775 1100 10775 1250
Wire Wire Line
	10775 1500 10775 1350
Wire Wire Line
	9400 1100 9400 1300
Wire Wire Line
	9400 1300 9250 1300
Wire Wire Line
	9625 1500 10775 1500
Wire Wire Line
	9775 1100 9775 1150
Connection ~ 9775 1100
Wire Wire Line
	9775 1450 9775 1500
Wire Wire Line
	9400 1100 10050 1100
Wire Wire Line
	10550 1100 10775 1100
Wire Wire Line
	9550 4800 9650 4800
Wire Wire Line
	9550 4700 9550 4800
Wire Wire Line
	9550 5300 9650 5300
Wire Wire Line
	9550 5200 9550 5300
Wire Wire Line
	9550 6875 9650 6875
Wire Wire Line
	9550 6625 9650 6625
Wire Wire Line
	9550 7125 9650 7125
Wire Wire Line
	9550 6525 9550 6625
Wire Wire Line
	9550 7025 9550 7125
Wire Wire Line
	11125 6700 11225 6700
Wire Wire Line
	11125 6800 11225 6800
Wire Wire Line
	11175 4850 11275 4850
Wire Wire Line
	11175 4950 11275 4950
Connection ~ 9775 1500
Wire Wire Line
	3425 9300 3425 10225
Connection ~ 4625 9300
Wire Wire Line
	3425 9525 3725 9525
Wire Wire Line
	6950 8600 6950 8625
Wire Wire Line
	6950 8625 7300 8625
Wire Wire Line
	7300 8725 6950 8725
Wire Wire Line
	6950 8725 6950 8875
Wire Wire Line
	7250 8925 7300 8925
Wire Wire Line
	7250 8825 7300 8825
Wire Wire Line
	4450 2850 5175 2850
Wire Wire Line
	5175 2950 4450 2950
Wire Wire Line
	5175 3050 4450 3050
Wire Wire Line
	4450 3150 5175 3150
Wire Wire Line
	9500 8925 10025 8925
Wire Wire Line
	9850 8725 10025 8725
Wire Wire Line
	9850 8825 10025 8825
Wire Wire Line
	10025 8625 10025 8575
Wire Wire Line
	10025 8575 9500 8575
Wire Wire Line
	10825 8900 11350 8900
Wire Wire Line
	11175 8700 11350 8700
Wire Wire Line
	11175 8800 11350 8800
Wire Wire Line
	11350 8600 11350 8550
Wire Wire Line
	11350 8550 10825 8550
Wire Wire Line
	5175 2250 4450 2250
Wire Wire Line
	5175 2350 4450 2350
Wire Wire Line
	5175 2450 4450 2450
Wire Wire Line
	5175 2550 4450 2550
Wire Wire Line
	4450 3550 5175 3550
Wire Wire Line
	4450 3650 5175 3650
Wire Wire Line
	1275 9175 1275 9475
Connection ~ 1500 9475
Connection ~ 1500 9175
Wire Wire Line
	1275 10075 1275 10375
Connection ~ 1500 10075
Wire Wire Line
	1500 9075 1500 9475
Connection ~ 1500 10375
Wire Wire Line
	1275 10375 2100 10375
Wire Wire Line
	1500 10075 1275 10075
Wire Wire Line
	1500 9475 1275 9475
Wire Wire Line
	1275 9175 1600 9175
Wire Wire Line
	1900 9175 2000 9175
Wire Wire Line
	2000 9175 2000 9625
Wire Wire Line
	2000 10375 2000 9925
Wire Wire Line
	1500 10075 1500 10500
Wire Wire Line
	1500 10850 1500 10800
Connection ~ 2000 10375
Wire Wire Line
	2400 10375 2525 10375
Wire Wire Line
	6650 10200 7750 10200
Wire Wire Line
	6650 10300 7750 10300
Wire Wire Line
	7475 10450 7750 10450
Wire Wire Line
	7750 10450 7750 10400
Wire Wire Line
	7750 10500 7750 10575
Wire Wire Line
	7750 10575 7475 10575
Wire Wire Line
	6375 2550 6975 2550
Wire Wire Line
	6975 2650 6800 2650
Wire Wire Line
	6425 2725 6975 2725
Wire Wire Line
	6975 2725 6975 2750
Wire Wire Line
	6750 2850 6975 2850
Wire Wire Line
	6375 2950 6975 2950
Wire Wire Line
	1200 800  4300 800 
Connection ~ 2475 800 
Wire Wire Line
	2475 800  2475 1750
Connection ~ 3700 800 
Wire Wire Line
	4300 1750 3250 1750
Wire Wire Line
	4300 800  4300 1750
Wire Wire Line
	2400 1125 2475 1125
Connection ~ 2475 1125
Wire Wire Line
	2475 1750 2650 1750
Wire Wire Line
	825  800  1000 800 
Wire Wire Line
	2150 800  2150 800 
Wire Wire Line
	2200 1125 2100 1125
Wire Wire Line
	2100 1125 2100 1325
Wire Wire Line
	3700 800  3700 1700
Wire Wire Line
	3700 1700 2950 1700
Wire Wire Line
	2950 1700 2950 1750
Wire Wire Line
	3125 800  3125 1650
Wire Wire Line
	3125 1650 2800 1650
Wire Wire Line
	2800 1650 2800 1750
Wire Wire Line
	3050 1125 3125 1125
Wire Wire Line
	2850 1125 2750 1125
Wire Wire Line
	2750 1125 2750 1325
Connection ~ 3125 800 
Connection ~ 3125 1125
Wire Wire Line
	3625 1125 3700 1125
Wire Wire Line
	3425 1125 3325 1125
Wire Wire Line
	3325 1125 3325 1325
Connection ~ 3700 1125
Wire Wire Line
	4225 1125 4300 1125
Wire Wire Line
	4025 1125 3925 1125
Wire Wire Line
	3925 1125 3925 1325
Connection ~ 4300 1125
Wire Wire Line
	1625 800  1625 1000
Connection ~ 1625 800 
Wire Wire Line
	1625 1200 1625 1325
Wire Wire Line
	6375 2500 6375 2550
Wire Notes Line
	5775 475  5775 11225
Wire Notes Line
	12300 475  12300 9950
Wire Notes Line
	12300 2600 16050 2600
Wire Notes Line
	12300 4900 16050 4900
Wire Notes Line
	5775 3350 12300 3350
Wire Notes Line
	7975 475  7975 3350
Wire Notes Line
	5775 1925 12300 1925
Wire Notes Line
	5775 7875 12300 7875
Wire Notes Line
	8975 7875 8975 11225
Wire Notes Line
	5775 9475 12300 9475
Wire Notes Line
	475  5725 5775 5725
$Comp
L +3.3V #PWR24
U 1 1 5826DBDB
P 6950 8600
F 0 "#PWR24" H 6950 8450 50  0001 C CNN
F 1 "+3.3V" H 6950 8740 50  0000 C CNN
F 2 "" H 6950 8600 50  0000 C CNN
F 3 "" H 6950 8600 50  0000 C CNN
	1    6950 8600
	1    0    0    -1  
$EndComp
Text Label 1450 3850 2    60   ~ 0
LED_FAIL
$Comp
L GND #PWR50
U 1 1 58273AEF
P 13625 5550
F 0 "#PWR50" H 13625 5300 50  0001 C CNN
F 1 "GND" H 13625 5400 50  0000 C CNN
F 2 "" H 13625 5550 50  0000 C CNN
F 3 "" H 13625 5550 50  0000 C CNN
	1    13625 5550
	1    0    0    -1  
$EndComp
$Comp
L R R26
U 1 1 58273AF5
P 13075 5550
F 0 "R26" V 13155 5550 50  0000 C CNN
F 1 "65R" V 13075 5550 50  0000 C CNN
F 2 "" V 13005 5550 50  0000 C CNN
F 3 "" H 13075 5550 50  0000 C CNN
	1    13075 5550
	0    1    1    0   
$EndComp
$Comp
L LED D4
U 1 1 58273AFB
P 13425 5550
F 0 "D4" H 13425 5650 50  0000 C CNN
F 1 "LED" H 13425 5450 50  0000 C CNN
F 2 "" H 13425 5550 50  0000 C CNN
F 3 "SMD CZERWONA" H 13425 5550 50  0001 C CNN
	1    13425 5550
	-1   0    0    1   
$EndComp
Text Notes 12675 5250 0    60   ~ 0
DIODA AWARYJNA\n
Text Label 12875 5425 2    60   ~ 0
LED_FAIL
Wire Wire Line
	12875 5425 12875 5550
Wire Wire Line
	12875 5550 12925 5550
Wire Notes Line
	12300 5925 13950 5925
Wire Notes Line
	13950 5925 13950 4925
$EndSCHEMATC
